COQAUX1 6c9d2acb62b3171ece1fe058b65841ea D:\IMT\FI4\PETERMONCRANE\TT.v
0 0 VernacProof "tac:no using:no"
352 360 proof_build_time "0.005"
352 360 proof_check_time "0.002"
0 0 VernacProof "tac:no using:no"
992 1000 proof_build_time "0.013"
992 1000 proof_check_time "0.001"
0 0 vo_compile_time "0.258"
